L3-domowe/vhdl/lfsr.vcd
$date
  Thu Mar 23 06:36:44 2017
$end
$version
  GHDL v0
$end
$timescale
  1 fs
$end
$var reg 1 ! clk $end
$var reg 16 " qq[15:0] $end
$scope module uut $end
$var reg 1 # clk $end
$var reg 16 $ q[15:0] $end
$upscope $end
$enddefinitions $end
#0
0!
b0000000000000010 "
0#
b0000000000000010 $
#10000000
1!
b0000000000000100 "
1#
b0000000000000100 $
#20000000
0!
0#
#30000000
1!
b0000000000001000 "
1#
b0000000000001000 $
#40000000
0!
0#
#50000000
1!
b0000000000010000 "
1#
b0000000000010000 $
#60000000
0!
0#
#70000000
1!
b0000000000100001 "
1#
b0000000000100001 $
#80000000
0!
0#
#90000000
1!
b0000000001000010 "
1#
b0000000001000010 $
#100000000
0!
0#
#110000000
1!
b0000000010000100 "
1#
b0000000010000100 $
#120000000
0!
0#
#130000000
1!
b0000000100001000 "
1#
b0000000100001000 $
#140000000
0!
0#
#150000000
1!
b0000001000010000 "
1#
b0000001000010000 $
#160000000
0!
0#
#170000000
1!
b0000010000100001 "
1#
b0000010000100001 $
#180000000
0!
0#
#190000000
1!
b0000100001000010 "
1#
b0000100001000010 $
#200000000
0!
0#
#210000000
1!
b0001000010000100 "
1#
b0001000010000100 $
#220000000
0!
0#
#230000000
1!
b0010000100001000 "
1#
b0010000100001000 $
#240000000
0!
0#
#250000000
1!
b0100001000010001 "
1#
b0100001000010001 $
#260000000
0!
0#
#270000000
1!
b1000010000100010 "
1#
b1000010000100010 $
#280000000
0!
0#
#290000000
1!
b0000100001000101 "
1#
b0000100001000101 $
#300000000
0!
0#
#310000000
1!
b0001000010001010 "
1#
b0001000010001010 $
#320000000
0!
0#
#330000000
1!
b0010000100010100 "
1#
b0010000100010100 $
#340000000
0!
0#
#350000000
1!
b0100001000101000 "
1#
b0100001000101000 $
#360000000
0!
0#
#370000000
1!
b1000010001010001 "
1#
b1000010001010001 $
#380000000
0!
0#
#390000000
1!
b0000100010100010 "
1#
b0000100010100010 $
#400000000
0!
0#
#410000000
1!
b0001000101000100 "
1#
b0001000101000100 $
#420000000
0!
0#
#430000000
1!
b0010001010001000 "
1#
b0010001010001000 $
#440000000
0!
0#
#450000000
1!
b0100010100010001 "
1#
b0100010100010001 $
#460000000
0!
0#
#470000000
1!
b1000101000100010 "
1#
b1000101000100010 $
#480000000
0!
0#
#490000000
1!
b0001010001000101 "
1#
b0001010001000101 $
#500000000
0!
0#
#510000000
1!
b0010100010001010 "
1#
b0010100010001010 $
#520000000
0!
0#
#530000000
1!
b0101000100010101 "
1#
b0101000100010101 $
#540000000
0!
0#
#550000000
1!
b1010001000101010 "
1#
b1010001000101010 $
#560000000
0!
0#
#570000000
1!
b0100010001010100 "
1#
b0100010001010100 $
#580000000
0!
0#
#590000000
1!
b1000100010101000 "
1#
b1000100010101000 $
#600000000
0!
0#
#610000000
1!
b0001000101010001 "
1#
b0001000101010001 $
#620000000
0!
0#
#630000000
1!
b0010001010100011 "
1#
b0010001010100011 $
#640000000
0!
0#
#650000000
1!
b0100010101000111 "
1#
b0100010101000111 $
#660000000
0!
0#
#670000000
1!
b1000101010001111 "
1#
b1000101010001111 $
#680000000
0!
0#
#690000000
1!
b0001010100011111 "
1#
b0001010100011111 $
#700000000
0!
0#
#710000000
1!
b0010101000111111 "
1#
b0010101000111111 $
#720000000
0!
0#
#730000000
1!
b0101010001111110 "
1#
b0101010001111110 $
#740000000
0!
0#
#750000000
1!
b1010100011111100 "
1#
b1010100011111100 $
#760000000
0!
0#
#770000000
1!
b0101000111111001 "
1#
b0101000111111001 $
#780000000
0!
0#
#790000000
1!
b1010001111110010 "
1#
b1010001111110010 $
#800000000
0!
0#
#810000000
1!
b0100011111100101 "
1#
b0100011111100101 $
#820000000
0!
0#
#830000000
1!
b1000111111001011 "
1#
b1000111111001011 $
#840000000
0!
0#
#850000000
1!
b0001111110010111 "
1#
b0001111110010111 $
#860000000
0!
0#
#870000000
1!
b0011111100101111 "
1#
b0011111100101111 $
#880000000
0!
0#
#890000000
1!
b0111111001011111 "
1#
b0111111001011111 $
#900000000
0!
0#
#910000000
1!
b1111110010111111 "
1#
b1111110010111111 $
#920000000
0!
0#
#930000000
1!
b1111100101111110 "
1#
b1111100101111110 $
#940000000
0!
0#
#950000000
1!
b1111001011111100 "
1#
b1111001011111100 $
#960000000
0!
0#
#970000000
1!
b1110010111111000 "
1#
b1110010111111000 $
#980000000
0!
0#
#990000000
1!
b1100101111110000 "
1#
b1100101111110000 $
#1000000000
0!
0#
#1010000000
1!
b1001011111100001 "
1#
b1001011111100001 $
#1020000000
0!
0#
#1030000000
1!
b0010111111000011 "
1#
b0010111111000011 $
#1040000000
0!
0#
#1050000000
1!
b0101111110000111 "
1#
b0101111110000111 $
#1060000000
0!
0#
#1070000000
1!
b1011111100001111 "
1#
b1011111100001111 $
#1080000000
0!
0#
#1090000000
1!
b0111111000011110 "
1#
b0111111000011110 $
#1100000000
0!
0#
#1110000000
1!
b1111110000111101 "
1#
b1111110000111101 $
#1120000000
0!
0#
#1130000000
1!
b1111100001111010 "
1#
b1111100001111010 $
#1140000000
0!
0#
#1150000000
1!
b1111000011110100 "
1#
b1111000011110100 $
#1160000000
0!
0#
#1170000000
1!
b1110000111101000 "
1#
b1110000111101000 $
#1180000000
0!
0#
#1190000000
1!
b1100001111010001 "
1#
b1100001111010001 $
#1200000000
0!
0#
#1210000000
1!
b1000011110100011 "
1#
b1000011110100011 $
#1220000000
0!
0#
#1230000000
1!
b0000111101000111 "
1#
b0000111101000111 $
#1240000000
0!
0#
#1250000000
1!
b0001111010001110 "
1#
b0001111010001110 $
#1260000000
0!
0#
#1270000000
1!
b0011110100011100 "
1#
b0011110100011100 $
#1280000000
0!
0#
#1290000000
1!
b0111101000111000 "
1#
b0111101000111000 $
#1300000000
0!
0#
#1310000000
1!
b1111010001110001 "
1#
b1111010001110001 $
#1320000000
0!
0#
#1330000000
1!
b1110100011100010 "
1#
b1110100011100010 $
#1340000000
0!
0#
#1350000000
1!
b1101000111000101 "
1#
b1101000111000101 $
#1360000000
0!
0#
#1370000000
1!
b1010001110001010 "
1#
b1010001110001010 $
#1380000000
0!
0#
#1390000000
1!
b0100011100010100 "
1#
b0100011100010100 $
#1400000000
0!
0#
#1410000000
1!
b1000111000101000 "
1#
b1000111000101000 $
#1420000000
0!
0#
#1430000000
1!
b0001110001010001 "
1#
b0001110001010001 $
#1440000000
0!
0#
#1450000000
1!
b0011100010100011 "
1#
b0011100010100011 $
#1460000000
0!
0#
#1470000000
1!
b0111000101000111 "
1#
b0111000101000111 $
#1480000000
0!
0#
#1490000000
1!
b1110001010001110 "
1#
b1110001010001110 $
#1500000000
0!
0#
#1510000000
1!
b1100010100011101 "
1#
b1100010100011101 $
#1520000000
0!
0#
#1530000000
1!
b1000101000111011 "
1#
b1000101000111011 $
#1540000000
0!
0#
#1550000000
1!
b0001010001110110 "
1#
b0001010001110110 $
#1560000000
0!
0#
#1570000000
1!
b0010100011101101 "
1#
b0010100011101101 $
#1580000000
0!
0#
#1590000000
1!
b0101000111011011 "
1#
b0101000111011011 $
#1600000000
0!
0#
#1610000000
1!
b1010001110110110 "
1#
b1010001110110110 $
#1620000000
0!
0#
#1630000000
1!
b0100011101101101 "
1#
b0100011101101101 $
#1640000000
0!
0#
#1650000000
1!
b1000111011011011 "
1#
b1000111011011011 $
#1660000000
0!
0#
#1670000000
1!
b0001110110110110 "
1#
b0001110110110110 $
#1680000000
0!
0#
#1690000000
1!
b0011101101101101 "
1#
b0011101101101101 $
#1700000000
0!
0#
#1710000000
1!
b0111011011011011 "
1#
b0111011011011011 $
#1720000000
0!
0#
#1730000000
1!
b1110110110110111 "
1#
b1110110110110111 $
#1740000000
0!
0#
#1750000000
1!
b1101101101101110 "
1#
b1101101101101110 $
#1760000000
0!
0#
#1770000000
1!
b1011011011011100 "
1#
b1011011011011100 $
#1780000000
0!
0#
#1790000000
1!
b0110110110111001 "
1#
b0110110110111001 $
#1800000000
0!
0#
#1810000000
1!
b1101101101110011 "
1#
b1101101101110011 $
#1820000000
0!
0#
#1830000000
1!
b1011011011100111 "
1#
b1011011011100111 $
#1840000000
0!
0#
#1850000000
1!
b0110110111001110 "
1#
b0110110111001110 $
#1860000000
0!
0#
#1870000000
1!
b1101101110011100 "
1#
b1101101110011100 $
#1880000000
0!
0#
#1890000000
1!
b1011011100111001 "
1#
b1011011100111001 $
#1900000000
0!
0#
#1910000000
1!
b0110111001110011 "
1#
b0110111001110011 $
#1920000000
0!
0#
#1930000000
1!
b1101110011100111 "
1#
b1101110011100111 $
#1940000000
0!
0#
#1950000000
1!
b1011100111001110 "
1#
b1011100111001110 $
#1960000000
0!
0#
#1970000000
1!
b0111001110011100 "
1#
b0111001110011100 $
#1980000000
0!
0#
#1990000000
1!
b1110011100111001 "
1#
b1110011100111001 $
#2000000000
0!
0#
#2010000000
1!
b1100111001110010 "
1#
b1100111001110010 $
#2020000000
0!
0#
#2030000000
1!
b1001110011100101 "
1#
b1001110011100101 $
#2040000000
0!
0#
#2050000000
1!
b0011100111001011 "
1#
b0011100111001011 $
#2060000000
0!
0#
#2070000000
1!
b0111001110010111 "
1#
b0111001110010111 $
#2080000000
0!
0#
#2090000000
1!
b1110011100101111 "
1#
b1110011100101111 $
#2100000000
0!
0#
#2110000000
1!
b1100111001011111 "
1#
b1100111001011111 $
#2120000000
0!
0#
#2130000000
1!
b1001110010111111 "
1#
b1001110010111111 $
#2140000000
0!
0#
#2150000000
1!
b0011100101111110 "
1#
b0011100101111110 $
#2160000000
0!
0#
#2170000000
1!
b0111001011111100 "
1#
b0111001011111100 $
#2180000000
0!
0#
#2190000000
1!
b1110010111111001 "
1#
b1110010111111001 $
#2200000000
0!
0#
#2210000000
1!
b1100101111110010 "
1#
b1100101111110010 $
#2220000000
0!
0#
#2230000000
1!
b1001011111100101 "
1#
b1001011111100101 $
#2240000000
0!
0#
#2250000000
1!
b0010111111001011 "
1#
b0010111111001011 $
#2260000000
0!
0#
#2270000000
1!
b0101111110010111 "
1#
b0101111110010111 $
#2280000000
0!
0#
#2290000000
1!
b1011111100101110 "
1#
b1011111100101110 $
#2300000000
0!
0#
#2310000000
1!
b0111111001011100 "
1#
b0111111001011100 $
#2320000000
0!
0#
#2330000000
1!
b1111110010111001 "
1#
b1111110010111001 $
#2340000000
0!
0#
#2350000000
1!
b1111100101110010 "
1#
b1111100101110010 $
#2360000000
0!
0#
#2370000000
1!
b1111001011100100 "
1#
b1111001011100100 $
#2380000000
0!
0#
#2390000000
1!
b1110010111001001 "
1#
b1110010111001001 $
#2400000000
0!
0#
#2410000000
1!
b1100101110010011 "
1#
b1100101110010011 $
#2420000000
0!
0#
#2430000000
1!
b1001011100100111 "
1#
b1001011100100111 $
#2440000000
0!
0#
#2450000000
1!
b0010111001001111 "
1#
b0010111001001111 $
#2460000000
0!
0#
#2470000000
1!
b0101110010011111 "
1#
b0101110010011111 $
#2480000000
0!
0#
#2490000000
1!
b1011100100111110 "
1#
b1011100100111110 $
#2500000000
0!
0#
#2510000000
1!
b0111001001111101 "
1#
b0111001001111101 $
#2520000000
0!
0#
#2530000000
1!
b1110010011111011 "
1#
b1110010011111011 $
#2540000000
0!
0#
#2550000000
1!
b1100100111110110 "
1#
b1100100111110110 $
#2560000000
0!
0#
#2570000000
1!
b1001001111101101 "
1#
b1001001111101101 $
#2580000000
0!
0#
#2590000000
1!
b0010011111011011 "
1#
b0010011111011011 $
#2600000000
0!
0#
#2610000000
1!
b0100111110110110 "
1#
b0100111110110110 $
#2620000000
0!
0#
#2630000000
1!
b1001111101101100 "
1#
b1001111101101100 $
#2640000000
0!
0#
#2650000000
1!
b0011111011011001 "
1#
b0011111011011001 $
#2660000000
0!
0#
#2670000000
1!
b0111110110110010 "
1#
b0111110110110010 $
#2680000000
0!
0#
#2690000000
1!
b1111101101100101 "
1#
b1111101101100101 $
#2700000000
0!
0#
#2710000000
1!
b1111011011001011 "
1#
b1111011011001011 $
#2720000000
0!
0#
#2730000000
1!
b1110110110010111 "
1#
b1110110110010111 $
#2740000000
0!
0#
#2750000000
1!
b1101101100101110 "
1#
b1101101100101110 $
#2760000000
0!
0#
#2770000000
1!
b1011011001011100 "
1#
b1011011001011100 $
#2780000000
0!
0#
#2790000000
1!
b0110110010111001 "
1#
b0110110010111001 $
#2800000000
0!
0#
#2810000000
1!
b1101100101110011 "
1#
b1101100101110011 $
#2820000000
0!
0#
#2830000000
1!
b1011001011100111 "
1#
b1011001011100111 $
#2840000000
0!
0#
#2850000000
1!
b0110010111001110 "
1#
b0110010111001110 $
#2860000000
0!
0#
#2870000000
1!
b1100101110011100 "
1#
b1100101110011100 $
#2880000000
0!
0#
#2890000000
1!
b1001011100111001 "
1#
b1001011100111001 $
#2900000000
0!
0#
#2910000000
1!
b0010111001110010 "
1#
b0010111001110010 $
#2920000000
0!
0#
#2930000000
1!
b0101110011100100 "
1#
b0101110011100100 $
#2940000000
0!
0#
#2950000000
1!
b1011100111001001 "
1#
b1011100111001001 $
#2960000000
0!
0#
#2970000000
1!
b0111001110010010 "
1#
b0111001110010010 $
#2980000000
0!
0#
#2990000000
1!
b1110011100100101 "
1#
b1110011100100101 $
#3000000000
0!
0#
#3010000000
1!
b1100111001001011 "
1#
b1100111001001011 $
#3020000000
0!
0#
#3030000000
1!
b1001110010010110 "
1#
b1001110010010110 $
#3040000000
0!
0#
#3050000000
1!
b0011100100101100 "
1#
b0011100100101100 $
#3060000000
0!
0#
#3070000000
1!
b0111001001011001 "
1#
b0111001001011001 $
#3080000000
0!
0#
#3090000000
1!
b1110010010110011 "
1#
b1110010010110011 $
#3100000000
0!
0#
#3110000000
1!
b1100100101100110 "
1#
b1100100101100110 $
#3120000000
0!
0#
#3130000000
1!
b1001001011001100 "
1#
b1001001011001100 $
#3140000000
0!
0#
#3150000000
1!
b0010010110011001 "
1#
b0010010110011001 $
#3160000000
0!
0#
#3170000000
1!
b0100101100110010 "
1#
b0100101100110010 $
#3180000000
0!
0#
#3190000000
1!
b1001011001100100 "
1#
b1001011001100100 $
#3200000000
0!
0#
#3210000000
1!
b0010110011001001 "
1#
b0010110011001001 $
#3220000000
0!
0#
#3230000000
1!
b0101100110010011 "
1#
b0101100110010011 $
#3240000000
0!
0#
#3250000000
1!
b1011001100100110 "
1#
b1011001100100110 $
#3260000000
0!
0#
#3270000000
1!
b0110011001001100 "
1#
b0110011001001100 $
#3280000000
0!
0#
#3290000000
1!
b1100110010011000 "
1#
b1100110010011000 $
#3300000000
0!
0#
#3310000000
1!
b1001100100110001 "
1#
b1001100100110001 $
#3320000000
0!
0#
#3330000000
1!
b0011001001100010 "
1#
b0011001001100010 $
#3340000000
0!
0#
#3350000000
1!
b0110010011000101 "
1#
b0110010011000101 $
#3360000000
0!
0#
#3370000000
1!
b1100100110001010 "
1#
b1100100110001010 $
#3380000000
0!
0#
#3390000000
1!
b1001001100010100 "
1#
b1001001100010100 $
#3400000000
0!
0#
#3410000000
1!
b0010011000101000 "
1#
b0010011000101000 $
#3420000000
0!
0#
#3430000000
1!
b0100110001010001 "
1#
b0100110001010001 $
#3440000000
0!
0#
#3450000000
1!
b1001100010100010 "
1#
b1001100010100010 $
#3460000000
0!
0#
#3470000000
1!
b0011000101000101 "
1#
b0011000101000101 $
#3480000000
0!
0#
#3490000000
1!
b0110001010001011 "
1#
b0110001010001011 $
#3500000000
0!
0#
#3510000000
1!
b1100010100010110 "
1#
b1100010100010110 $
#3520000000
0!
0#
#3530000000
1!
b1000101000101101 "
1#
b1000101000101101 $
#3540000000
0!
0#
#3550000000
1!
b0001010001011011 "
1#
b0001010001011011 $
#3560000000
0!
0#
#3570000000
1!
b0010100010110111 "
1#
b0010100010110111 $
#3580000000
0!
0#
#3590000000
1!
b0101000101101110 "
1#
b0101000101101110 $
#3600000000
0!
0#
#3610000000
1!
b1010001011011101 "
1#
b1010001011011101 $
#3620000000
0!
0#
#3630000000
1!
b0100010110111011 "
1#
b0100010110111011 $
#3640000000
0!
0#
#3650000000
1!
b1000101101110110 "
1#
b1000101101110110 $
#3660000000
0!
0#
#3670000000
1!
b0001011011101100 "
1#
b0001011011101100 $
#3680000000
0!
0#
#3690000000
1!
b0010110111011000 "
1#
b0010110111011000 $
#3700000000
0!
0#
#3710000000
1!
b0101101110110000 "
1#
b0101101110110000 $
#3720000000
0!
0#
#3730000000
1!
b1011011101100000 "
1#
b1011011101100000 $
#3740000000
0!
0#
#3750000000
1!
b0110111011000000 "
1#
b0110111011000000 $
#3760000000
0!
0#
#3770000000
1!
b1101110110000000 "
1#
b1101110110000000 $
#3780000000
0!
0#
#3790000000
1!
b1011101100000000 "
1#
b1011101100000000 $
#3800000000
0!
0#
#3810000000
1!
b0111011000000000 "
1#
b0111011000000000 $
#3820000000
0!
0#
#3830000000
1!
b1110110000000000 "
1#
b1110110000000000 $
#3840000000
0!
0#
#3850000000
1!
b1101100000000001 "
1#
b1101100000000001 $
#3860000000
0!
0#
#3870000000
1!
b1011000000000010 "
1#
b1011000000000010 $
#3880000000
0!
0#
#3890000000
1!
b0110000000000100 "
1#
b0110000000000100 $
#3900000000
0!
0#
#3910000000
1!
b1100000000001000 "
1#
b1100000000001000 $
#3920000000
0!
0#
#3930000000
1!
b1000000000010000 "
1#
b1000000000010000 $
#3940000000
0!
0#
#3950000000
1!
b0000000000100000 "
1#
b0000000000100000 $
#3960000000
0!
0#
#3970000000
1!
b0000000001000000 "
1#
b0000000001000000 $
#3980000000
0!
0#
#3990000000
1!
b0000000010000000 "
1#
b0000000010000000 $
#4000000000
0!
0#
#4010000000
1!
b0000000100000000 "
1#
b0000000100000000 $
#4020000000
0!
0#
#4030000000
1!
b0000001000000000 "
1#
b0000001000000000 $
#4040000000
0!
0#
#4050000000
1!
b0000010000000000 "
1#
b0000010000000000 $
#4060000000
0!
0#
#4070000000
1!
b0000100000000000 "
1#
b0000100000000000 $
#4080000000
0!
0#
#4090000000
1!
b0001000000000000 "
1#
b0001000000000000 $
#4100000000
0!
0#
#4110000000
1!
b0010000000000000 "
1#
b0010000000000000 $
#4120000000
0!
0#
#4130000000
1!
b0100000000000001 "
1#
b0100000000000001 $
#4140000000
0!
0#
#4150000000
1!
b1000000000000011 "
1#
b1000000000000011 $
#4160000000
0!
0#
#4170000000
1!
b0000000000000111 "
1#
b0000000000000111 $
#4180000000
0!
0#
#4190000000
1!
b0000000000001110 "
1#
b0000000000001110 $
#4200000000
0!
0#
#4210000000
1!
b0000000000011100 "
1#
b0000000000011100 $
#4220000000
0!
0#
#4230000000
1!
b0000000000111001 "
1#
b0000000000111001 $
#4240000000
0!
0#
#4250000000
1!
b0000000001110011 "
1#
b0000000001110011 $
#4260000000
0!
0#
#4270000000
1!
b0000000011100111 "
1#
b0000000011100111 $
#4280000000
0!
0#
#4290000000
1!
b0000000111001110 "
1#
b0000000111001110 $
#4300000000
0!
0#
#4310000000
1!
b0000001110011100 "
1#
b0000001110011100 $
#4320000000
0!
0#
#4330000000
1!
b0000011100111001 "
1#
b0000011100111001 $
#4340000000
0!
0#
#4350000000
1!
b0000111001110011 "
1#
b0000111001110011 $
#4360000000
0!
0#
#4370000000
1!
b0001110011100111 "
1#
b0001110011100111 $
#4380000000
0!
0#
#4390000000
1!
b0011100111001110 "
1#
b0011100111001110 $
#4400000000
0!
0#
#4410000000
1!
b0111001110011101 "
1#
b0111001110011101 $
#4420000000
0!
0#
#4430000000
1!
b1110011100111011 "
1#
b1110011100111011 $
#4440000000
0!
0#
#4450000000
1!
b1100111001110110 "
1#
b1100111001110110 $
#4460000000
0!
0#
#4470000000
1!
b1001110011101101 "
1#
b1001110011101101 $
#4480000000
0!
0#
#4490000000
1!
b0011100111011011 "
1#
b0011100111011011 $
#4500000000
0!
0#
#4510000000
1!
b0111001110110110 "
1#
b0111001110110110 $
#4520000000
0!
0#
#4530000000
1!
b1110011101101101 "
1#
b1110011101101101 $
#4540000000
0!
0#
#4550000000
1!
b1100111011011011 "
1#
b1100111011011011 $
#4560000000
0!
0#
#4570000000
1!
b1001110110110111 "
1#
b1001110110110111 $
#4580000000
0!
0#
#4590000000
1!
b0011101101101110 "
1#
b0011101101101110 $
#4600000000
0!
0#
#4610000000
1!
b0111011011011101 "
1#
b0111011011011101 $
#4620000000
0!
0#
#4630000000
1!
b1110110110111011 "
1#
b1110110110111011 $
#4640000000
0!
0#
#4650000000
1!
b1101101101110110 "
1#
b1101101101110110 $
#4660000000
0!
0#
#4670000000
1!
b1011011011101101 "
1#
b1011011011101101 $
#4680000000
0!
0#
#4690000000
1!
b0110110111011010 "
1#
b0110110111011010 $
#4700000000
0!
0#
#4710000000
1!
b1101101110110101 "
1#
b1101101110110101 $
#4720000000
0!
0#
#4730000000
1!
b1011011101101011 "
1#
b1011011101101011 $
#4740000000
0!
0#
#4750000000
1!
b0110111011010110 "
1#
b0110111011010110 $
#4760000000
0!
0#
#4770000000
1!
b1101110110101101 "
1#
b1101110110101101 $
#4780000000
0!
0#
#4790000000
1!
b1011101101011010 "
1#
b1011101101011010 $
#4800000000
0!
0#
#4810000000
1!
b0111011010110101 "
1#
b0111011010110101 $
#4820000000
0!
0#
#4830000000
1!
b1110110101101011 "
1#
b1110110101101011 $
#4840000000
0!
0#
#4850000000
1!
b1101101011010111 "
1#
b1101101011010111 $
#4860000000
0!
0#
#4870000000
1!
b1011010110101111 "
1#
b1011010110101111 $
#4880000000
0!
0#
#4890000000
1!
b0110101101011110 "
1#
b0110101101011110 $
#4900000000
0!
0#
#4910000000
1!
b1101011010111101 "
1#
b1101011010111101 $
#4920000000
0!
0#
#4930000000
1!
b1010110101111011 "
1#
b1010110101111011 $
#4940000000
0!
0#
#4950000000
1!
b0101101011110111 "
1#
b0101101011110111 $
#4960000000
0!
0#
#4970000000
1!
b1011010111101110 "
1#
b1011010111101110 $
#4980000000
0!
0#
#4990000000
1!
b0110101111011100 "
1#
b0110101111011100 $
#5000000000
0!
0#
#5010000000
1!
b1101011110111001 "
1#
b1101011110111001 $
#5020000000
0!
0#
#5030000000
1!
b1010111101110011 "
1#
b1010111101110011 $
#5040000000
0!
0#
#5050000000
1!
b0101111011100111 "
1#
b0101111011100111 $
#5060000000
0!
0#
#5070000000
1!
b1011110111001111 "
1#
b1011110111001111 $
#5080000000
0!
0#
#5090000000
1!
b0111101110011110 "
1#
b0111101110011110 $
#5100000000
0!
0#
#5110000000
1!
b1111011100111101 "
1#
b1111011100111101 $
#5120000000
0!
0#
#5130000000
1!
b1110111001111010 "
1#
b1110111001111010 $
#5140000000
0!
0#
#5150000000
1!
b1101110011110100 "
1#
b1101110011110100 $
#5160000000
0!
0#
#5170000000
1!
b1011100111101001 "
1#
b1011100111101001 $
#5180000000
0!
0#
#5190000000
1!
b0111001111010010 "
1#
b0111001111010010 $
#5200000000
0!
0#
#5210000000
1!
b1110011110100101 "
1#
b1110011110100101 $
#5220000000
0!
0#
#5230000000
1!
b1100111101001011 "
1#
b1100111101001011 $
#5240000000
0!
0#
#5250000000
1!
b1001111010010110 "
1#
b1001111010010110 $
#5260000000
0!
0#
#5270000000
1!
b0011110100101100 "
1#
b0011110100101100 $
#5280000000
0!
0#
#5290000000
1!
b0111101001011001 "
1#
b0111101001011001 $
#5300000000
0!
0#
#5310000000
1!
b1111010010110011 "
1#
b1111010010110011 $
#5320000000
0!
0#
#5330000000
1!
b1110100101100110 "
1#
b1110100101100110 $
#5340000000
0!
0#
#5350000000
1!
b1101001011001101 "
1#
b1101001011001101 $
#5360000000
0!
0#
#5370000000
1!
b1010010110011010 "
1#
b1010010110011010 $
#5380000000
0!
0#
#5390000000
1!
b0100101100110101 "
1#
b0100101100110101 $
#5400000000
0!
0#
#5410000000
1!
b1001011001101010 "
1#
b1001011001101010 $
#5420000000
0!
0#
#5430000000
1!
b0010110011010101 "
1#
b0010110011010101 $
#5440000000
0!
0#
#5450000000
1!
b0101100110101010 "
1#
b0101100110101010 $
#5460000000
0!
0#
#5470000000
1!
b1011001101010101 "
1#
b1011001101010101 $
#5480000000
0!
0#
#5490000000
1!
b0110011010101011 "
1#
b0110011010101011 $
#5500000000
0!
0#
#5510000000
1!
b1100110101010110 "
1#
b1100110101010110 $
#5520000000
0!
0#
#5530000000
1!
b1001101010101101 "
1#
b1001101010101101 $
#5540000000
0!
0#
#5550000000
1!
b0011010101011011 "
1#
b0011010101011011 $
#5560000000
0!
0#
#5570000000
1!
b0110101010110110 "
1#
b0110101010110110 $
#5580000000
0!
0#
#5590000000
1!
b1101010101101101 "
1#
b1101010101101101 $
#5600000000
0!
0#
#5610000000
1!
b1010101011011010 "
1#
b1010101011011010 $
#5620000000
0!
0#
#5630000000
1!
b0101010110110101 "
1#
b0101010110110101 $
#5640000000
0!
0#
#5650000000
1!
b1010101101101010 "
1#
b1010101101101010 $
#5660000000
0!
0#
#5670000000
1!
b0101011011010100 "
1#
b0101011011010100 $
#5680000000
0!
0#
#5690000000
1!
b1010110110101000 "
1#
b1010110110101000 $
#5700000000
0!
0#
#5710000000
1!
b0101101101010000 "
1#
b0101101101010000 $
#5720000000
0!
0#
#5730000000
1!
b1011011010100000 "
1#
b1011011010100000 $
#5740000000
0!
0#
#5750000000
1!
b0110110101000000 "
1#
b0110110101000000 $
#5760000000
0!
0#
#5770000000
1!
b1101101010000000 "
1#
b1101101010000000 $
#5780000000
0!
0#
#5790000000
1!
b1011010100000000 "
1#
b1011010100000000 $
#5800000000
0!
0#
#5810000000
1!
b0110101000000000 "
1#
b0110101000000000 $
#5820000000
0!
0#
#5830000000
1!
b1101010000000000 "
1#
b1101010000000000 $
#5840000000
0!
0#
#5850000000
1!
b1010100000000000 "
1#
b1010100000000000 $
#5860000000
0!
0#
#5870000000
1!
b0101000000000000 "
1#
b0101000000000000 $
#5880000000
0!
0#
#5890000000
1!
b1010000000000001 "
1#
b1010000000000001 $
#5900000000
0!
0#
#5910000000
1!
b0100000000000010 "
1#
b0100000000000010 $
#5920000000
0!
0#
#5930000000
1!
b1000000000000101 "
1#
b1000000000000101 $
#5940000000
0!
0#
#5950000000
1!
b0000000000001011 "
1#
b0000000000001011 $
#5960000000
0!
0#
#5970000000
1!
b0000000000010110 "
1#
b0000000000010110 $
#5980000000
0!
0#
#5990000000
1!
b0000000000101101 "
1#
b0000000000101101 $
#6000000000
0!
0#
#6010000000
1!
b0000000001011010 "
1#
b0000000001011010 $
#6020000000
0!
0#
#6030000000
1!
b0000000010110101 "
1#
b0000000010110101 $
#6040000000
0!
0#
#6050000000
1!
b0000000101101011 "
1#
b0000000101101011 $
#6060000000
0!
0#
#6070000000
1!
b0000001011010110 "
1#
b0000001011010110 $
#6080000000
0!
0#
#6090000000
1!
b0000010110101101 "
1#
b0000010110101101 $
#6100000000
0!
0#
#6110000000
1!
b0000101101011010 "
1#
b0000101101011010 $
#6120000000
0!
0#
#6130000000
1!
b0001011010110101 "
1#
b0001011010110101 $
#6140000000
0!
0#
#6150000000
1!
b0010110101101011 "
1#
b0010110101101011 $
#6160000000
0!
0#
#6170000000
1!
b0101101011010111 "
1#
b0101101011010111 $
#6180000000
0!
0#
#6190000000
1!
b1011010110101110 "
1#
b1011010110101110 $
#6200000000
0!
0#
#6210000000
1!
b0110101101011100 "
1#
b0110101101011100 $
#6220000000
0!
0#
#6230000000
1!
b1101011010111001 "
1#
b1101011010111001 $
#6240000000
0!
0#
#6250000000
1!
b1010110101110011 "
1#
b1010110101110011 $
#6260000000
0!
0#
#6270000000
1!
b0101101011100111 "
1#
b0101101011100111 $
#6280000000
0!
0#
#6290000000
1!
b1011010111001111 "
1#
b1011010111001111 $
#6300000000
0!
0#
#6310000000
1!
b0110101110011110 "
1#
b0110101110011110 $
#6320000000
0!
0#
#6330000000
1!
b1101011100111101 "
1#
b1101011100111101 $
#6340000000
0!
0#
#6350000000
1!
b1010111001111011 "
1#
b1010111001111011 $
#6360000000
0!
0#
#6370000000
1!
b0101110011110111 "
1#
b0101110011110111 $
#6380000000
0!
0#
#6390000000
1!
b1011100111101110 "
1#
b1011100111101110 $
#6400000000
0!
0#
#6410000000
1!
b0111001111011100 "
1#
b0111001111011100 $
#6420000000
0!
0#
#6430000000
1!
b1110011110111001 "
1#
b1110011110111001 $
#6440000000
0!
0#
#6450000000
1!
b1100111101110010 "
1#
b1100111101110010 $
#6460000000
0!
0#
#6470000000
1!
b1001111011100101 "
1#
b1001111011100101 $
#6480000000
0!
0#
#6490000000
1!
b0011110111001011 "
1#
b0011110111001011 $
#6500000000
0!
0#
#6510000000
1!
b0111101110010111 "
1#
b0111101110010111 $
#6520000000
0!
0#
#6530000000
1!
b1111011100101111 "
1#
b1111011100101111 $
#6540000000
0!
0#
#6550000000
1!
b1110111001011111 "
1#
b1110111001011111 $
#6560000000
0!
0#
#6570000000
1!
b1101110010111110 "
1#
b1101110010111110 $
#6580000000
0!
0#
#6590000000
1!
b1011100101111101 "
1#
b1011100101111101 $
#6600000000
0!
0#
#6610000000
1!
b0111001011111011 "
1#
b0111001011111011 $
#6620000000
0!
0#
#6630000000
1!
b1110010111110111 "
1#
b1110010111110111 $
#6640000000
0!
0#
#6650000000
1!
b1100101111101110 "
1#
b1100101111101110 $
#6660000000
0!
0#
#6670000000
1!
b1001011111011100 "
1#
b1001011111011100 $
#6680000000
0!
0#
#6690000000
1!
b0010111110111000 "
1#
b0010111110111000 $
#6700000000
0!
0#
#6710000000
1!
b0101111101110000 "
1#
b0101111101110000 $
#6720000000
0!
0#
#6730000000
1!
b1011111011100000 "
1#
b1011111011100000 $
#6740000000
0!
0#
#6750000000
1!
b0111110111000000 "
1#
b0111110111000000 $
#6760000000
0!
0#
#6770000000
1!
b1111101110000000 "
1#
b1111101110000000 $
