L3-domowe/vhdl/lfsr.vcd
$date
  Thu Mar 23 05:52:02 2017
$end
$version
  GHDL v0
$end
$timescale
  1 fs
$end
$var reg 1 ! clk $end
$var reg 16 " qq[15:0] $end
$scope module uut $end
$var reg 1 # clk $end
$var reg 16 $ q[15:0] $end
$upscope $end
$enddefinitions $end
#0
0!
b0000000000000010 "
0#
b0000000000000010 $
#10000000
1!
b0000000000000100 "
1#
b0000000000000100 $
#20000000
0!
0#
#30000000
1!
b0000000000001000 "
1#
b0000000000001000 $
#40000000
0!
0#
#50000000
1!
b0000000000010000 "
1#
b0000000000010000 $
#60000000
0!
0#
#70000000
1!
b0000000000100001 "
1#
b0000000000100001 $
#80000000
0!
0#
#90000000
1!
b0000000001000010 "
1#
b0000000001000010 $
#100000000
0!
0#
#110000000
1!
b0000000010000100 "
1#
b0000000010000100 $
#120000000
0!
0#
#130000000
1!
b0000000100001000 "
1#
b0000000100001000 $
#140000000
0!
0#
#150000000
1!
b0000001000010000 "
1#
b0000001000010000 $
#160000000
0!
0#
#170000000
1!
b0000010000100001 "
1#
b0000010000100001 $
#180000000
0!
0#
#190000000
1!
b0000100001000010 "
1#
b0000100001000010 $
#200000000
0!
0#
#210000000
1!
b0001000010000100 "
1#
b0001000010000100 $
#220000000
0!
0#
#230000000
1!
b0010000100001000 "
1#
b0010000100001000 $
#240000000
0!
0#
#250000000
1!
b0100001000010001 "
1#
b0100001000010001 $
#260000000
0!
0#
#270000000
1!
b1000010000100010 "
1#
b1000010000100010 $
#280000000
0!
0#
#290000000
1!
b0000100001000101 "
1#
b0000100001000101 $
#300000000
0!
0#
#310000000
1!
b0001000010001010 "
1#
b0001000010001010 $
#320000000
0!
0#
#330000000
1!
b0010000100010100 "
1#
b0010000100010100 $
#340000000
0!
0#
#350000000
1!
b0100001000101000 "
1#
b0100001000101000 $
#360000000
0!
0#
#370000000
1!
b1000010001010001 "
1#
b1000010001010001 $
#380000000
0!
0#
#390000000
1!
b0000100010100010 "
1#
b0000100010100010 $
#400000000
0!
0#
#410000000
1!
b0001000101000100 "
1#
b0001000101000100 $
#420000000
0!
0#
#430000000
1!
b0010001010001000 "
1#
b0010001010001000 $
#440000000
0!
0#
#450000000
1!
b0100010100010001 "
1#
b0100010100010001 $
#460000000
0!
0#
#470000000
1!
b1000101000100010 "
1#
b1000101000100010 $
#480000000
0!
0#
#490000000
1!
b0001010001000101 "
1#
b0001010001000101 $
#500000000
0!
0#
#510000000
1!
b0010100010001010 "
1#
b0010100010001010 $
#520000000
0!
0#
#530000000
1!
b0101000100010101 "
1#
b0101000100010101 $
#540000000
0!
0#
#550000000
1!
b1010001000101010 "
1#
b1010001000101010 $
#560000000
0!
0#
#570000000
1!
b0100010001010100 "
1#
b0100010001010100 $
#580000000
0!
0#
#590000000
1!
b1000100010101000 "
1#
b1000100010101000 $
#600000000
0!
0#
#610000000
1!
b0001000101010001 "
1#
b0001000101010001 $
#620000000
0!
0#
#630000000
1!
b0010001010100011 "
1#
b0010001010100011 $
#640000000
0!
0#
#650000000
1!
b0100010101000111 "
1#
b0100010101000111 $
#660000000
0!
0#
#670000000
1!
b1000101010001111 "
1#
b1000101010001111 $
#680000000
0!
0#
#690000000
1!
b0001010100011111 "
1#
b0001010100011111 $
#700000000
0!
0#
#710000000
1!
b0010101000111111 "
1#
b0010101000111111 $
#720000000
0!
0#
#730000000
1!
b0101010001111110 "
1#
b0101010001111110 $
#740000000
0!
0#
#750000000
1!
b1010100011111100 "
1#
b1010100011111100 $
#760000000
0!
0#
#770000000
1!
b0101000111111001 "
1#
b0101000111111001 $
#780000000
0!
0#
#790000000
1!
b1010001111110010 "
1#
b1010001111110010 $
#800000000
0!
0#
#810000000
1!
b0100011111100101 "
1#
b0100011111100101 $
#820000000
0!
0#
#830000000
1!
b1000111111001011 "
1#
b1000111111001011 $
#840000000
0!
0#
#850000000
1!
b0001111110010111 "
1#
b0001111110010111 $
#860000000
0!
0#
#870000000
1!
b0011111100101111 "
1#
b0011111100101111 $
#880000000
0!
0#
#890000000
1!
b0111111001011111 "
1#
b0111111001011111 $
#900000000
0!
0#
#910000000
1!
b1111110010111111 "
1#
b1111110010111111 $
#920000000
0!
0#
#930000000
1!
b1111100101111110 "
1#
b1111100101111110 $
#940000000
0!
0#
#950000000
1!
b1111001011111100 "
1#
b1111001011111100 $
#960000000
0!
0#
#970000000
1!
b1110010111111000 "
1#
b1110010111111000 $
#980000000
0!
0#
#990000000
1!
b1100101111110000 "
1#
b1100101111110000 $
